Análisis de la base Victimas del Accionar Represivo Ilegal
…
##   0%  25%  50%  75% 100% 
##    0   22   26   31   81

Algunos Análisis

#Armamos la base
victimasxpais <- victimas %>%
  group_by(pais_nacimiento)%>%
  summarise(N=n())%>%
  arrange(desc(N))

victimasxpais

## # A tibble: 38 × 2
##    pais_nacimiento      N
##    <fct>            <int>
##  1 ARGENTINA         7736
##  2 sin datos          389
##  3 URUGUAY            152
##  4 PARAGUAY            87
##  5 CHILE               86
##  6 ESPAÑA              62
##  7 ITALIA              57
##  8 dato resguardado    53
##  9 BOLIVIA             39
## 10 PERU                24
## # … with 28 more rows
## # ℹ Use `print(n = ...)` to see more rows
…
#ARGENTINA LATINOAMERICA OTROS

Como se adelantó más arriba, se observa que la mayoría de las
victimas fueron de nacionalidad argentina, con gran preponderancia de
los paises limitrofes y NAs.

#Victimas por provincia
victimasxprovincia <- victimas %>%
  group_by(provincia_nacimiento)%>%
  summarise(N=n())%>%
  arrange(desc(N))

victimasxprovincia

## # A tibble: 27 × 2
##    provincia_nacimiento     N
##    <fct>                <int>
##  1 BUENOS AIRES          2056
##  2 CAPITAL FEDERAL       2054
##  3 CORDOBA                716
##  4 TUCUMAN                706
##  5 SANTA FE               624
##  6 <NA>                   575
##  7 sin datos              389
##  8 ENTRE RIOS             269
##  9 MENDOZA                179
## 10 SANTIAGO DEL ESTERO    163
## # … with 17 more rows
## # ℹ Use `print(n = ...)` to see more rows

Se observa que hay mayor frecuencia de desaparecidos oriundos de
Buenos Aires y Capital Federal

tipo <- victimas %>%
  group_by(tipificacion_ruvte, embarazo)%>%
  summarise(N=n())%>%
  arrange(desc(N))

## `summarise()` has grouped output by 'tipificacion_ruvte'. You can override
## using the `.groups` argument.

tipo

## # A tibble: 59 × 3
## # Groups:   tipificacion_ruvte [38]
##    tipificacion_ruvte                                              embar…¹     N
##    <chr>                                                           <fct>   <int>
##  1 DESAPARICION FORZADA                                            <NA>     5802
##  2 ASESINATO                                                       <NA>     1473
##  3 DESAPARICION FORZADA / EXHUMADOS E IDENTIFICADOS SUS RESTOS     <NA>      488
##  4 DESAPARICION FORZADA / CON INFORMACION SOBRE EL DECESO (NO PRO… <NA>      246
##  5 DESAPARICION FORZADA                                            EMBARA…   210
##  6 DESAPARICION FORZADA / PROBADO EL DECESO                        <NA>      152
##  7 ASESINATO                                                       EMBARA…    31
##  8 ASESINATO / EXHUMADOS E IDENTIFICADOS SUS RESTOS                <NA>       31
##  9 ASESINATO / PROCEDENTE POR APLICACION DE ART. 6º DE LA LEY 24.… <NA>       31
## 10 DESAPARICION FORZADA / EXHUMADOS E IDENTIFICADOS SUS RESTOS     EMBARA…    25
## # … with 49 more rows, and abbreviated variable name ¹​embarazo
## # ℹ Use `print(n = ...)` to see more rows
…
